[
{
	"class": "level",
	"name": "symmetry1",
	"map": "levels/03/symmetry1.tmx",
	"bots": "levels/03/symmetry1.json",
	"pos": [320, 240],
	"minSteps": 12,
	"minIns": 4
},
{
	"class": "level",
	"name": "symmetry2",
	"map": "levels/03/symmetry2.tmx",
	"bots": "levels/03/symmetry2.json",
	"pos": [220, 240],
	"minSteps": 61,
	"minIns": 6
},
{
	"class": "level",
	"name": "symmetry3",
	"map": "levels/02/move1.tmx",
	"bots": "levels/03/symmetry3.json",
	"pos": [220, 140],
	"minSteps": 26,
	"minIns": 5
},
{
	"class": "level",
	"name": "symmetry4",
	"map": "levels/03/symmetry4.tmx",
	"bots": "levels/03/symmetry4.json",
	"pos": [420, 140],
	"minSteps": 29,
	"minIns": 10
},
{
	"class": "level",
	"name": "symmetry5",
	"map": "levels/03/symmetry5.tmx",
	"bots": "levels/03/symmetry5.json",
	"pos": [420, 340],
	"minSteps": 31,
	"minIns": 8
},
{
	"class": "level",
	"name": "symmetry6",
	"map": "levels/03/symmetry6.tmx",
	"bots": "levels/03/symmetry6.json",
	"pos": [120, 340],
	"minSteps": 43,
	"minIns": 14
},
{
	"class": "level",
	"name": "symmetry7",
	"map": "levels/03/symmetry7.tmx",
	"bots": "levels/03/symmetry7.json",
	"pos": [120, 40],
	"minSteps": 24,
	"minIns": 3
}
]

