[
{
	"class": "level",
	"name": "move1",
	"map": "levels/02/move1.tmx",
	"bots": "levels/02/move1.json",
	"pos": [80, 320],
	"messages": ["you.active", "true", "orders = new Orders(\"reach red button\")",
			"you.assign(orders)", "you.transferControl(\"green pentagon\")", "you.run()",
			"true"],
	"left": [true, false, true, true, true, true, false],
	"soundNames": ["lowRandom.mp3", "highUp.mp3", "lowThreeTone.mp3","lowThreeTone.mp3", "lowThreeTone.mp3",
			"lowRandom.mp3", "highUp.mp3"],
	"minSteps": 18,
	"minIns": 3
},
{
	"class": "level",
	"name": "move2",
	"map": "levels/02/move2.tmx",
	"bots": "levels/02/move2.json",
	"pos": [170, 170],
	"minSteps": 17,
	"minIns": 11
},
{
	"class": "level",
	"name": "move3",
	"map": "levels/02/move3.tmx",
	"bots": "levels/02/move3.json",
	"pos": [280, 350],
	"tutorial": ["selectbot#0", "Right", "selectbot#1", "Left", "play", "nsteps#4", "stop"],
	"minSteps": 29,
	"minIns": 7
},
{
	"class": "level",
	"name": "move4",
	"map": "levels/02/move4.tmx",
	"bots": "levels/02/move4.json",
	"pos": [390, 70],
	"minSteps": 12,
	"minIns": 7
},
{
	"class": "level",
	"name": "move5",
	"map": "levels/02/move5.tmx",
	"bots": "levels/02/move5.json",
	"pos": [470, 240],
	"messages": ["you.discovered", "true", "you.run()",
			"true", "you.run()", "true",
			"you.run()"],
	"left": [true, false, true, false, true, false, true],
	"soundNames": ["lowThreeTone.mp3", "highUp.mp3", "deactivate.wav","highUp.mp3","deactivate.wav",
			"highUp.mp3", "deactivate.wav",""],
	"minSteps": 20,
	"minIns": 8
}
]

