[
{
	"class": "bot",
	"instructionSet": ["UpWall","DownWall","LeftWall","RightWall","Wait"],
	"program": [],
	"programSize": 12,
	"x": 2, "y": 3,
	"flagColor": {"g": 1,"a": 1},
	"texture": "round_bot"
},
{
	"class": "bot",
	"program": ["RightWall","Left","Left","Left","Left"],
	"programSize": 5,
	"x": 1, "y": 6,
	"flagColor": {"r":1,"g":1,"a":1},
	"texture": "round_bot",
	"editable": false,
	"id": 1,
},
{
	"class": "bot",
	"program": ["Left","Left","Left","Left","RightWall","Left"],
	"programSize": 6,
	"x": 5, "y": 1,
	"flagColor": {"r":1,"g":1,"a":1},
	"texture": "round_bot",
	"editable": false,
	"id": 1,
},
{
	"class": "bot",
	"program": ["Up","Up","Up","Up","Up","Down","Down","Down","Down","Down"],
	"programSize": 10,
	"x": 7, "y": 1,
	"flagColor": {"r":1,"g":1,"a":1},
	"texture": "round_bot",
	"editable": false,
	"id": 1,
},
{
	"class": "bot",
	"program": ["LeftWall","Right","Right","Right","Right"],
	"programSize": 5,
	"x": 10, "y": 6,
	"flagColor": {"r":1,"g":1,"a":1},
	"texture": "round_bot",
	"editable": false,
	"id": 1,
}
]

