[
{
	"class": "bot",
	"instructionSet": ["UpWall", "DownWall", "LeftWall", "RightWall"],
	"program": [],
	"programSize": 10,
	"x": 1, "y": 2,
	"flagColor": {"g": 1,"a": 1},
	"texture": "round_bot"
}
]

