[
{
	"class": "level",
	"name": "space1",
	"map": "levels/06/space1.tmx",
	"bots": "levels/06/space1.json",
	"pos": [200, 190],
	"minSteps": 3,
	"minIns": 3,
	"tutorial": ["selectbot#1","selectbot#2","selectbot#0","RotateWorld#-90","Wait","Wait","play","win"]
},
{
	"class": "level",
	"name": "space2",
	"map": "levels/06/space2.tmx",
	"bots": "levels/06/space2.json",
	"pos": [200, 90],
	"minSteps": 6,
	"minIns": 3
},
{
	"class": "level",
	"name": "space3",
	"map": "levels/06/space3.tmx",
	"bots": "levels/06/space3.json",
	"pos": [400, 90],
	"minSteps": 18,
	"minIns": 7
},
{
	"class": "level",
	"name": "space4",
	"map": "levels/06/space4.tmx",
	"bots": "levels/06/space4.json",
	"pos": [400, 190],
	"minSteps": 11,
	"minIns": 6
}
]

