[
{
	"class": "bot",
	"instructionSet": ["Up","Down","Right","Left"],
	"program": [],
	"programSize": 12,
	"x": 1, "y": 0,
	"flagColor": {"g":1,"a":1},
	"texture": "round_bot"
},
{
	"class": "bot",
	"program": ["LeftWall","SelfDestruct"],
	"programSize": 2,
	"x": 2, "y": 6,
	"flagColor": {"r":1,"g":1,"a":1},
	"texture": "round_bot",
	"id": 1,
	"editable": false
}
]

